<svg width="112" height="112" viewBox="0 0 112 112" fill="none" xmlns="http://www.w3.org/2000/svg">
<g id="Spinner">
<path id="Fill" d="M55.0667 19.6C49.9121 19.6 45.7334 15.4213 45.7334 10.2667C45.7334 5.11203 49.9121 0.93335 55.0667 0.93335C60.2214 0.93335 64.4 5.11203 64.4 10.2667C64.4 15.4213 60.2214 19.6 55.0667 19.6ZM88.0647 32.802C83.1678 32.802 79.1981 28.8323 79.1981 23.9354C79.1981 19.0384 83.1678 15.0687 88.0647 15.0687C92.9616 15.0687 96.9314 19.0384 96.9314 23.9354C96.9314 28.8323 92.9616 32.802 88.0647 32.802ZM101.733 65.3334C97.0942 65.3334 93.3334 61.5725 93.3334 56.9334C93.3334 52.2942 97.0942 48.5334 101.733 48.5334C106.373 48.5334 110.133 52.2942 110.133 56.9334C110.133 61.5725 106.373 65.3334 101.733 65.3334ZM88.0647 97.8647C83.6833 97.8647 80.1314 94.3128 80.1314 89.9314C80.1314 85.5499 83.6833 81.998 88.0647 81.998C92.4462 81.998 95.998 85.5499 95.998 89.9314C95.998 94.3128 92.4462 97.8647 88.0647 97.8647ZM55.0667 111.067C50.943 111.067 47.6 107.724 47.6 103.6C47.6 99.4763 50.943 96.1334 55.0667 96.1334C59.1904 96.1334 62.5334 99.4763 62.5334 103.6C62.5334 107.724 59.1904 111.067 55.0667 111.067ZM22.0687 96.9314C18.2027 96.9314 15.0687 93.7973 15.0687 89.9314C15.0687 86.0654 18.2027 82.9314 22.0687 82.9314C25.9347 82.9314 29.0687 86.0654 29.0687 89.9314C29.0687 93.7973 25.9347 96.9314 22.0687 96.9314ZM8.40003 63.4667C4.79177 63.4667 1.8667 60.5416 1.8667 56.9334C1.8667 53.3251 4.79177 50.4 8.40003 50.4C12.0083 50.4 14.9334 53.3251 14.9334 56.9334C14.9334 60.5416 12.0083 63.4667 8.40003 63.4667ZM22.0687 30.002C18.7182 30.002 16.002 27.2859 16.002 23.9354C16.002 20.5848 18.7182 17.8687 22.0687 17.8687C25.4192 17.8687 28.1354 20.5848 28.1354 23.9354C28.1354 27.2859 25.4192 30.002 22.0687 30.002Z" fill="#C1112F"/>
</g>
</svg>
